Logical.Output.txt
[Running] alu.v
(ACC:xxxxxxxxxxxxxxxxxxxxxxxxxxxxxxxx)(OPCODE:xxxx)(IN:xxxxxxxxxxxxxxxx)(OUT:xxxxxxxxxxxxxxxxxxxxxxxxxxxxxxxx)
(ACC:xxxxxxxxxxxxxxxxxxxxxxxxxxxxxxxx)(OPCODE:0000)(IN:0000000000000000)(OUT:xxxxxxxxxxxxxxxxxxxxxxxxxxxxxxxx)
(ACC:xxxxxxxxxxxxxxxxxxxxxxxxxxxxxxxx)(OPCODE:0001)(IN:0000000000000000)(OUT:00000000000000000000000000000000)
(ACC:00000000000000000000000000000000)(OPCODE:1001)(IN:0000000000000000)(OUT:00000000000000000000000000000000)
(ACC:00000000000000000000000000000000)(OPCODE:1010)(IN:0000000011111111)(OUT:11111111111111111111111111111111)
(ACC:11111111111111111111111111111111)(OPCODE:0101)(IN:0000000000001111)(OUT:00000000000000010000000000001110)
(ACC:00000000000000010000000000001110)(OPCODE:1011)(IN:0000000000000000)(OUT:00000000000000000000000000001110)
(ACC:00000000000000000000000000001110)(OPCODE:0110)(IN:0000000000001111)(OUT:11111111111111111111111111111111)
(ACC:11111111111111111111111111111111)(OPCODE:0001)(IN:0000000000000000)(OUT:00000000000000000000000000000000)
(ACC:00000000000000000000000000000000)(OPCODE:0011)(IN:0000000000000000)(OUT:11111111111111111111111111111111)
(ACC:11111111111111111111111111111111)(OPCODE:1000)(IN:0000000000000000)(OUT:00000000000000001111111111111111)
(ACC:00000000000000001111111111111111)(OPCODE:0000)(IN:0000000000000000)(OUT:00000000000000001111111111111111)
(ACC:00000000000000001111111111111111)(OPCODE:0100)(IN:0000000000001111)(OUT:00000000000011101111111111110001)
(ACC:00000000000011101111111111110001)(OPCODE:0111)(IN:0000000000000010)(OUT:00000000000000000111111111111000)
(ACC:00000000000000000111111111111000)(OPCODE:0011)(IN:0000000000000000)(OUT:11111111111111111111111111111111)
(ACC:11111111111111111111111111111111)(OPCODE:0101)(IN:0000000000000001)(OUT:00000000000000010000000000000000)
(ACC:00000000000000010000000000000000)(OPCODE:0101)(IN:0000000000000001)(OUT:00000000000000000000000000000001)
(ACC:00000000000000000000000000000001)(OPCODE:0101)(IN:0000000000000001)(OUT:00000000000000000000000000000010)
(ACC:00000000000000000000000000000010)(OPCODE:0101)(IN:0000000000000001)(OUT:00000000000000000000000000000011)
alu.v:299: $finish called at 186 (1s)
[Done] exit with code=0 in 0.297 seconds